mg spin counts =  1751 fg spin counts =  269
MG symbolId Freq {
  '1ed95855-19f2-4bab-a37d-a8b5ddb88e81': {
    '10': 3.21,
    '20': 9.22,
    '30': 583.67,
    '40': 0,
    '50': 0,
    '60': 0,
    '70': 0,
    '80': 0,
    '90': 0,
    '100': 0
  },
  '42e36df6-0c74-40b1-ab05-c49d3514b4ef': {
    '10': 3.97,
    '20': 14.59,
    '30': 875.5,
    '40': 0,
    '50': 0,
    '60': 0,
    '70': 0,
    '80': 0,
    '90': 0,
    '100': 0
  },
  '4eb13a7a-9765-4e8c-8c36-403e43cbe47c': {
    '10': 4.07,
    '20': 13.57,
    '30': 583.67,
    '40': 0,
    '50': 0,
    '60': 0,
    '70': 0,
    '80': 0,
    '90': 0,
    '100': 0
  },
  '56de42d7-1bec-413b-9355-992b88970644': {
    '10': 3.06,
    '20': 6.19,
    '30': 125.07,
    '40': 0,
    '50': 0,
    '60': 0,
    '70': 0,
    '80': 0,
    '90': 0,
    '100': 0
  },
  '731b08d4-c19e-4081-ad3a-3dc83a8887c2': {
    '10': 3.34,
    '20': 8.22,
    '30': 875.5,
    '40': 0,
    '50': 0,
    '60': 0,
    '70': 0,
    '80': 0,
    '90': 0,
    '100': 0
  },
  '78262d74-d750-4116-aa41-15a3b0154011': {
    '10': 3.47,
    '20': 10.61,
    '30': 1751,
    '40': 0,
    '50': 0,
    '60': 0,
    '70': 0,
    '80': 0,
    '90': 0,
    '100': 0
  },
  '8d08ecf9-841f-48c0-ad29-da3098ba1f91': {
    '10': 7.03,
    '20': 10.68,
    '30': 79.59,
    '40': 134.69,
    '50': 0,
    '60': 1751,
    '70': 0,
    '80': 0,
    '90': 0,
    '100': 0
  },
  '903f1f1a-3c0f-49c4-8782-ed133e4acee1': {
    '10': 11.75,
    '20': 97.28,
    '30': 0,
    '40': 0,
    '50': 0,
    '60': 0,
    '70': 0,
    '80': 0,
    '90': 0,
    '100': 0
  },
  'b5a812b1-1c21-4b85-a172-530f35f991ef': {
    '10': 3.26,
    '20': 8.67,
    '30': 291.83,
    '40': 1751,
    '50': 0,
    '60': 0,
    '70': 0,
    '80': 0,
    '90': 0,
    '100': 0
  },
  'bbcfd4cd-90da-4f24-a8e1-89c84c85cde9': {
    '10': 3.59,
    '20': 12.6,
    '30': 875.5,
    '40': 0,
    '50': 0,
    '60': 0,
    '70': 0,
    '80': 0,
    '90': 0,
    '100': 0
  },
  'bc53bbeb-976d-407a-a07c-d31ad721e174': {
    '10': 3.1,
    '20': 6.49,
    '30': 291.83,
    '40': 0,
    '50': 0,
    '60': 0,
    '70': 0,
    '80': 0,
    '90': 0,
    '100': 0
  },
  'f5ee797d-e0ac-416f-bf07-c3da32be14ae': {
    '10': 5.2,
    '20': 20.6,
    '30': 0,
    '40': 0,
    '50': 0,
    '60': 0,
    '70': 0,
    '80': 0,
    '90': 0,
    '100': 0
  }
} FG symbolId Freq {
  '1ed95855-19f2-4bab-a37d-a8b5ddb88e81': {
    '10': 3.2,
    '20': 7.08,
    '30': 269,
    '40': 0,
    '50': 0,
    '60': 0,
    '70': 0,
    '80': 0,
    '90': 0,
    '100': 0
  },
  '42e36df6-0c74-40b1-ab05-c49d3514b4ef': {
    '10': 4.8,
    '20': 10.35,
    '30': 0,
    '40': 0,
    '50': 0,
    '60': 0,
    '70': 0,
    '80': 0,
    '90': 0,
    '100': 0
  },
  '4eb13a7a-9765-4e8c-8c36-403e43cbe47c': {
    '10': 4.72,
    '20': 13.45,
    '30': 269,
    '40': 0,
    '50': 0,
    '60': 0,
    '70': 0,
    '80': 0,
    '90': 0,
    '100': 0
  },
  '56de42d7-1bec-413b-9355-992b88970644': {
    '10': 3.2,
    '20': 7.27,
    '30': 269,
    '40': 0,
    '50': 0,
    '60': 0,
    '70': 0,
    '80': 0,
    '90': 0,
    '100': 0
  },
  '731b08d4-c19e-4081-ad3a-3dc83a8887c2': {
    '10': 3.32,
    '20': 9.28,
    '30': 269,
    '40': 0,
    '50': 0,
    '60': 0,
    '70': 0,
    '80': 0,
    '90': 0,
    '100': 0
  },
  '78262d74-d750-4116-aa41-15a3b0154011': {
    '10': 3.64,
    '20': 11.7,
    '30': 0,
    '40': 0,
    '50': 0,
    '60': 0,
    '70': 0,
    '80': 0,
    '90': 0,
    '100': 0
  },
  '8d08ecf9-841f-48c0-ad29-da3098ba1f91': {
    '10': 6.11,
    '20': 7.08,
    '30': 134.5,
    '40': 89.67,
    '50': 0,
    '60': 0,
    '70': 0,
    '80': 0,
    '90': 0,
    '100': 0
  },
  '903f1f1a-3c0f-49c4-8782-ed133e4acee1': {
    '10': 7.91,
    '20': 53.8,
    '30': 0,
    '40': 0,
    '50': 0,
    '60': 0,
    '70': 0,
    '80': 0,
    '90': 0,
    '100': 0
  },
  'b5a812b1-1c21-4b85-a172-530f35f991ef': {
    '10': 3.24,
    '20': 8.15,
    '30': 0,
    '40': 0,
    '50': 0,
    '60': 0,
    '70': 0,
    '80': 0,
    '90': 0,
    '100': 0
  },
  'bbcfd4cd-90da-4f24-a8e1-89c84c85cde9': {
    '10': 4.8,
    '20': 14.94,
    '30': 89.67,
    '40': 0,
    '50': 0,
    '60': 0,
    '70': 0,
    '80': 0,
    '90': 0,
    '100': 0
  },
  'bc53bbeb-976d-407a-a07c-d31ad721e174': {
    '10': 3.36,
    '20': 6.26,
    '30': 269,
    '40': 0,
    '50': 0,
    '60': 0,
    '70': 0,
    '80': 0,
    '90': 0,
    '100': 0
  },
  'f5ee797d-e0ac-416f-bf07-c3da32be14ae': {
    '10': 5.27,
    '20': 20.69,
    '30': 0,
    '40': 0,
    '50': 0,
    '60': 0,
    '70': 0,
    '80': 0,
    '90': 0,
    '100': 0
  }
}
